%YAML 1.1
%TAG !u! tag:unity3d.com,2011:
--- !u!74 &7400000
AnimationClip:
  m_ObjectHideFlags: 0
  m_CorrespondingSourceObject: {fileID: 0}
  m_PrefabInstance: {fileID: 0}
  m_PrefabAsset: {fileID: 0}
  m_Name: BookOpeningNew
  serializedVersion: 6
  m_Legacy: 0
  m_Compressed: 0
  m_UseHighQualityCurve: 1
  m_RotationCurves: []
  m_CompressedRotationCurves: []
  m_EulerCurves: []
  m_PositionCurves: []
  m_ScaleCurves: []
  m_FloatCurves: []
  m_PPtrCurves:
  - curve:
    - time: 0
      value: {fileID: 21300000, guid: 0629a911bfbf4d84489987e8d3c0cbd9, type: 3}
    - time: 0.083333336
      value: {fileID: 21300000, guid: 71846428fe0d51b4d9f86fc6e84c6c05, type: 3}
    - time: 0.16666667
      value: {fileID: 21300000, guid: ae77483bd71f9d34e8f996566ab91b07, type: 3}
    - time: 0.25
      value: {fileID: 21300000, guid: 6602e07789113134f8c599059142a7f2, type: 3}
    - time: 0.33333334
      value: {fileID: 21300000, guid: d328bc933af55914894de99fe35184ca, type: 3}
    - time: 0.41666666
      value: {fileID: 21300000, guid: a84221c433be1b34ba884af3ea3e7ec5, type: 3}
    - time: 0.5
      value: {fileID: 21300000, guid: 296a991cd22cd9d4c8792e257c739dab, type: 3}
    - time: 0.5833333
      value: {fileID: 21300000, guid: 0cb47d0347e7109458d924b770cfdcf1, type: 3}
    - time: 0.6666667
      value: {fileID: 21300000, guid: 821662f990afb43429d259a8c25eff50, type: 3}
    - time: 0.75
      value: {fileID: 21300000, guid: 3b5478a2392a022448177f2800af24a5, type: 3}
    - time: 0.8333333
      value: {fileID: 21300000, guid: 306b65b890158644081af5c7f111487d, type: 3}
    - time: 0.9166667
      value: {fileID: 21300000, guid: 6e623e128872e04448c9a1a64112bd1c, type: 3}
    - time: 1
      value: {fileID: 21300000, guid: 42f7ab47b4b4b1a4897bd22538189361, type: 3}
    - time: 1.0833334
      value: {fileID: 21300000, guid: 20069f0cc8df3ea41b99b78ea837c9eb, type: 3}
    - time: 1.1666666
      value: {fileID: 21300000, guid: 1adeaa65611c26944a6f9545f726af58, type: 3}
    - time: 1.25
      value: {fileID: 21300000, guid: fe2cf15232a2160439be11f16fb71626, type: 3}
    - time: 1.3333334
      value: {fileID: 21300000, guid: 732ea6d3e36a04a45b0ca0ecd845316b, type: 3}
    - time: 1.4166666
      value: {fileID: 21300000, guid: d3ba1e88afc15cf49b9422a7b85de072, type: 3}
    - time: 1.5
      value: {fileID: 21300000, guid: 3af2a2c612481d048ada38f2eecf0673, type: 3}
    - time: 1.5833334
      value: {fileID: 21300000, guid: 1ddf097c549a9824093f9a7374f69d55, type: 3}
    - time: 1.6666666
      value: {fileID: 21300000, guid: ddafe96e65a0a1342a1aa3cb16612bf6, type: 3}
    - time: 1.75
      value: {fileID: 21300000, guid: a6a070b000e0f934395745c36eaa2cc2, type: 3}
    - time: 1.8333334
      value: {fileID: 21300000, guid: 027ea27c9632ee047bf96295a2d199b5, type: 3}
    - time: 1.9166666
      value: {fileID: 21300000, guid: 74e8d4e501f90c04eb6ffa3d860da3ec, type: 3}
    - time: 2
      value: {fileID: 21300000, guid: 06a4d10027a3d2b448221deab0fff39a, type: 3}
    - time: 2.0833333
      value: {fileID: 21300000, guid: 705e250c5a3178a4ca61701acd45cd2a, type: 3}
    - time: 2.1666667
      value: {fileID: 21300000, guid: 0d4d872e5a8278747b741165d0752284, type: 3}
    - time: 2.25
      value: {fileID: 21300000, guid: f2c026e6026ac2b4c8bb998f6913db51, type: 3}
    - time: 2.3333333
      value: {fileID: 21300000, guid: 26f91f22817152240adb2ea0e0f3419e, type: 3}
    - time: 2.4166667
      value: {fileID: 21300000, guid: 8f3aa6a180af08e4a80936d0ffe4dc14, type: 3}
    - time: 2.5
      value: {fileID: 21300000, guid: 480a70aeb9bf3784ea30ffa9c5db9072, type: 3}
    - time: 2.5833333
      value: {fileID: 21300000, guid: c7c0be68e1cb5e34ca96441021a3ca90, type: 3}
    - time: 2.6666667
      value: {fileID: 21300000, guid: 91f68a207c3054a4abcd8fdfcfb52d7c, type: 3}
    - time: 2.75
      value: {fileID: 21300000, guid: aee9d306fddb2544ab007011e90e1f12, type: 3}
    - time: 2.8333333
      value: {fileID: 21300000, guid: ee8838988ef83ec4fbdbf07ef4471cf3, type: 3}
    - time: 2.9166667
      value: {fileID: 21300000, guid: ae6bca9fc787b484b9282474e5851cf7, type: 3}
    - time: 3
      value: {fileID: 21300000, guid: c92d3ee46be7b6e4d83c777f8b3f0aa6, type: 3}
    - time: 3.0833333
      value: {fileID: 21300000, guid: 3e97a43b88dcb984594a5ac19be4e44d, type: 3}
    - time: 3.1666667
      value: {fileID: 21300000, guid: bad6e342c4fbc8b498a1dbbe9c5a2571, type: 3}
    - time: 3.25
      value: {fileID: 21300000, guid: c9538401dae494949931132ffc0ce3ec, type: 3}
    - time: 3.3333333
      value: {fileID: 21300000, guid: 074248e6c4add5e42b0f01c60441c5d8, type: 3}
    - time: 3.4166667
      value: {fileID: 21300000, guid: 62c4b12ea7b94cb4aba23bd935f3bed9, type: 3}
    - time: 3.5
      value: {fileID: 21300000, guid: c226b644bde99be44a1dab33477a6e01, type: 3}
    - time: 3.5833333
      value: {fileID: 21300000, guid: f471621c74d78a04594185590c31ff4a, type: 3}
    - time: 3.6666667
      value: {fileID: 21300000, guid: ab108e8adb44e184283d3eabadb994ce, type: 3}
    - time: 3.75
      value: {fileID: 21300000, guid: dd320dcfc8ee51b49b2b9fc688efa45b, type: 3}
    - time: 3.8333333
      value: {fileID: 21300000, guid: 84f17e6199bb4e54b8bc898b8b356d3a, type: 3}
    - time: 3.9166667
      value: {fileID: 21300000, guid: 03a96d28ea6a2424a8c0d1c2c1cc2c03, type: 3}
    - time: 4
      value: {fileID: 21300000, guid: 44c4aa6282e358c40bb67804d2efdb37, type: 3}
    - time: 4.0833335
      value: {fileID: 21300000, guid: 42dd909d7e52b724c94a158fcbdf9f3c, type: 3}
    - time: 4.1666665
      value: {fileID: 21300000, guid: f933447ea0652c94e87583795bcbf886, type: 3}
    - time: 4.25
      value: {fileID: 21300000, guid: 67248534b8eb61f40b11cf4eee1269f6, type: 3}
    - time: 4.3333335
      value: {fileID: 21300000, guid: 35bdaf7b11121994cb08f29bb35372be, type: 3}
    - time: 4.4166665
      value: {fileID: 21300000, guid: c05c7414ed0f2f245be417bad8eafd53, type: 3}
    - time: 4.5
      value: {fileID: 21300000, guid: e2254ffa4171f074fa30c3f1d1406301, type: 3}
    - time: 4.5833335
      value: {fileID: 21300000, guid: aea696f9006f73041ba5731cc422d714, type: 3}
    - time: 4.6666665
      value: {fileID: 21300000, guid: 291c7f8444ba8ed458554ecc5f61a860, type: 3}
    - time: 4.75
      value: {fileID: 21300000, guid: f1f7622ab515cba4484fe3f64361d169, type: 3}
    - time: 4.8333335
      value: {fileID: 21300000, guid: 917b8a92aa3d70f4e8d086879e0f28e6, type: 3}
    - time: 4.9166665
      value: {fileID: 21300000, guid: 92a9e79b7f00cf34ea2fb69a6e7ba17e, type: 3}
    - time: 5
      value: {fileID: 21300000, guid: 72da6c34dfdd7a3498e2e79c91e67c34, type: 3}
    - time: 5.0833335
      value: {fileID: 21300000, guid: b11953dac022a554d89cf9664ee3966b, type: 3}
    - time: 5.1666665
      value: {fileID: 21300000, guid: af095d55fa392eb43a0003604509f864, type: 3}
    - time: 5.25
      value: {fileID: 21300000, guid: beda2966dcdfe524fa41b040d535ef05, type: 3}
    - time: 5.3333335
      value: {fileID: 21300000, guid: aac626918313a1b489aa76516adf49b8, type: 3}
    - time: 5.4166665
      value: {fileID: 21300000, guid: 3202adca3eb55244c822cd0df9b5f476, type: 3}
    - time: 5.5
      value: {fileID: 21300000, guid: a4035185e3df3c440bfc118adbf1b231, type: 3}
    - time: 5.5833335
      value: {fileID: 21300000, guid: 57ff13a48e43509488cf3c69be4e5c70, type: 3}
    - time: 5.6666665
      value: {fileID: 21300000, guid: e51e0fa4c8ee37f4281008939974ff83, type: 3}
    - time: 5.75
      value: {fileID: 21300000, guid: 426ca947cd861ac439b4c127e175708b, type: 3}
    - time: 5.8333335
      value: {fileID: 21300000, guid: 2123c6e41d505764c808be5778b6bd0c, type: 3}
    - time: 5.9166665
      value: {fileID: 21300000, guid: 2671b1d5240efa84292f9502194ebcd1, type: 3}
    - time: 6
      value: {fileID: 21300000, guid: 138d5a69c5d90db44a428d569ad66c49, type: 3}
    - time: 6.0833335
      value: {fileID: 21300000, guid: 1834d1476254e0a4f8ae943fc2abbc4a, type: 3}
    - time: 6.1666665
      value: {fileID: 21300000, guid: d0acccefb1a7cbd45a33b36c9aa995ee, type: 3}
    - time: 6.25
      value: {fileID: 21300000, guid: a4997b36d8a3acf469c59b6f2dc82bd2, type: 3}
    - time: 6.3333335
      value: {fileID: 21300000, guid: f23bbd170c782e74281e18ead7b2cd38, type: 3}
    - time: 6.4166665
      value: {fileID: 21300000, guid: 26c7aa88282871a4a951ae64738bf865, type: 3}
    - time: 6.5
      value: {fileID: 21300000, guid: 34e9a27553c9bb74db9915dad9878874, type: 3}
    - time: 6.5833335
      value: {fileID: 21300000, guid: c06ffb0a9a94b494c91d5592794c0b10, type: 3}
    - time: 6.6666665
      value: {fileID: 21300000, guid: fd5d60156ab46a4449e23423757954ae, type: 3}
    - time: 6.75
      value: {fileID: 21300000, guid: c32aa9b2f425509408d7379b831e164f, type: 3}
    - time: 6.8333335
      value: {fileID: 21300000, guid: 5ce9f87becf6c884099716867e93edb3, type: 3}
    attribute: m_Sprite
    path: 
    classID: 212
    script: {fileID: 0}
  m_SampleRate: 12
  m_WrapMode: 0
  m_Bounds:
    m_Center: {x: 0, y: 0, z: 0}
    m_Extent: {x: 0, y: 0, z: 0}
  m_ClipBindingConstant:
    genericBindings:
    - serializedVersion: 2
      path: 0
      attribute: 0
      script: {fileID: 0}
      typeID: 212
      customType: 23
      isPPtrCurve: 1
    pptrCurveMapping:
    - {fileID: 21300000, guid: 0629a911bfbf4d84489987e8d3c0cbd9, type: 3}
    - {fileID: 21300000, guid: 71846428fe0d51b4d9f86fc6e84c6c05, type: 3}
    - {fileID: 21300000, guid: ae77483bd71f9d34e8f996566ab91b07, type: 3}
    - {fileID: 21300000, guid: 6602e07789113134f8c599059142a7f2, type: 3}
    - {fileID: 21300000, guid: d328bc933af55914894de99fe35184ca, type: 3}
    - {fileID: 21300000, guid: a84221c433be1b34ba884af3ea3e7ec5, type: 3}
    - {fileID: 21300000, guid: 296a991cd22cd9d4c8792e257c739dab, type: 3}
    - {fileID: 21300000, guid: 0cb47d0347e7109458d924b770cfdcf1, type: 3}
    - {fileID: 21300000, guid: 821662f990afb43429d259a8c25eff50, type: 3}
    - {fileID: 21300000, guid: 3b5478a2392a022448177f2800af24a5, type: 3}
    - {fileID: 21300000, guid: 306b65b890158644081af5c7f111487d, type: 3}
    - {fileID: 21300000, guid: 6e623e128872e04448c9a1a64112bd1c, type: 3}
    - {fileID: 21300000, guid: 42f7ab47b4b4b1a4897bd22538189361, type: 3}
    - {fileID: 21300000, guid: 20069f0cc8df3ea41b99b78ea837c9eb, type: 3}
    - {fileID: 21300000, guid: 1adeaa65611c26944a6f9545f726af58, type: 3}
    - {fileID: 21300000, guid: fe2cf15232a2160439be11f16fb71626, type: 3}
    - {fileID: 21300000, guid: 732ea6d3e36a04a45b0ca0ecd845316b, type: 3}
    - {fileID: 21300000, guid: d3ba1e88afc15cf49b9422a7b85de072, type: 3}
    - {fileID: 21300000, guid: 3af2a2c612481d048ada38f2eecf0673, type: 3}
    - {fileID: 21300000, guid: 1ddf097c549a9824093f9a7374f69d55, type: 3}
    - {fileID: 21300000, guid: ddafe96e65a0a1342a1aa3cb16612bf6, type: 3}
    - {fileID: 21300000, guid: a6a070b000e0f934395745c36eaa2cc2, type: 3}
    - {fileID: 21300000, guid: 027ea27c9632ee047bf96295a2d199b5, type: 3}
    - {fileID: 21300000, guid: 74e8d4e501f90c04eb6ffa3d860da3ec, type: 3}
    - {fileID: 21300000, guid: 06a4d10027a3d2b448221deab0fff39a, type: 3}
    - {fileID: 21300000, guid: 705e250c5a3178a4ca61701acd45cd2a, type: 3}
    - {fileID: 21300000, guid: 0d4d872e5a8278747b741165d0752284, type: 3}
    - {fileID: 21300000, guid: f2c026e6026ac2b4c8bb998f6913db51, type: 3}
    - {fileID: 21300000, guid: 26f91f22817152240adb2ea0e0f3419e, type: 3}
    - {fileID: 21300000, guid: 8f3aa6a180af08e4a80936d0ffe4dc14, type: 3}
    - {fileID: 21300000, guid: 480a70aeb9bf3784ea30ffa9c5db9072, type: 3}
    - {fileID: 21300000, guid: c7c0be68e1cb5e34ca96441021a3ca90, type: 3}
    - {fileID: 21300000, guid: 91f68a207c3054a4abcd8fdfcfb52d7c, type: 3}
    - {fileID: 21300000, guid: aee9d306fddb2544ab007011e90e1f12, type: 3}
    - {fileID: 21300000, guid: ee8838988ef83ec4fbdbf07ef4471cf3, type: 3}
    - {fileID: 21300000, guid: ae6bca9fc787b484b9282474e5851cf7, type: 3}
    - {fileID: 21300000, guid: c92d3ee46be7b6e4d83c777f8b3f0aa6, type: 3}
    - {fileID: 21300000, guid: 3e97a43b88dcb984594a5ac19be4e44d, type: 3}
    - {fileID: 21300000, guid: bad6e342c4fbc8b498a1dbbe9c5a2571, type: 3}
    - {fileID: 21300000, guid: c9538401dae494949931132ffc0ce3ec, type: 3}
    - {fileID: 21300000, guid: 074248e6c4add5e42b0f01c60441c5d8, type: 3}
    - {fileID: 21300000, guid: 62c4b12ea7b94cb4aba23bd935f3bed9, type: 3}
    - {fileID: 21300000, guid: c226b644bde99be44a1dab33477a6e01, type: 3}
    - {fileID: 21300000, guid: f471621c74d78a04594185590c31ff4a, type: 3}
    - {fileID: 21300000, guid: ab108e8adb44e184283d3eabadb994ce, type: 3}
    - {fileID: 21300000, guid: dd320dcfc8ee51b49b2b9fc688efa45b, type: 3}
    - {fileID: 21300000, guid: 84f17e6199bb4e54b8bc898b8b356d3a, type: 3}
    - {fileID: 21300000, guid: 03a96d28ea6a2424a8c0d1c2c1cc2c03, type: 3}
    - {fileID: 21300000, guid: 44c4aa6282e358c40bb67804d2efdb37, type: 3}
    - {fileID: 21300000, guid: 42dd909d7e52b724c94a158fcbdf9f3c, type: 3}
    - {fileID: 21300000, guid: f933447ea0652c94e87583795bcbf886, type: 3}
    - {fileID: 21300000, guid: 67248534b8eb61f40b11cf4eee1269f6, type: 3}
    - {fileID: 21300000, guid: 35bdaf7b11121994cb08f29bb35372be, type: 3}
    - {fileID: 21300000, guid: c05c7414ed0f2f245be417bad8eafd53, type: 3}
    - {fileID: 21300000, guid: e2254ffa4171f074fa30c3f1d1406301, type: 3}
    - {fileID: 21300000, guid: aea696f9006f73041ba5731cc422d714, type: 3}
    - {fileID: 21300000, guid: 291c7f8444ba8ed458554ecc5f61a860, type: 3}
    - {fileID: 21300000, guid: f1f7622ab515cba4484fe3f64361d169, type: 3}
    - {fileID: 21300000, guid: 917b8a92aa3d70f4e8d086879e0f28e6, type: 3}
    - {fileID: 21300000, guid: 92a9e79b7f00cf34ea2fb69a6e7ba17e, type: 3}
    - {fileID: 21300000, guid: 72da6c34dfdd7a3498e2e79c91e67c34, type: 3}
    - {fileID: 21300000, guid: b11953dac022a554d89cf9664ee3966b, type: 3}
    - {fileID: 21300000, guid: af095d55fa392eb43a0003604509f864, type: 3}
    - {fileID: 21300000, guid: beda2966dcdfe524fa41b040d535ef05, type: 3}
    - {fileID: 21300000, guid: aac626918313a1b489aa76516adf49b8, type: 3}
    - {fileID: 21300000, guid: 3202adca3eb55244c822cd0df9b5f476, type: 3}
    - {fileID: 21300000, guid: a4035185e3df3c440bfc118adbf1b231, type: 3}
    - {fileID: 21300000, guid: 57ff13a48e43509488cf3c69be4e5c70, type: 3}
    - {fileID: 21300000, guid: e51e0fa4c8ee37f4281008939974ff83, type: 3}
    - {fileID: 21300000, guid: 426ca947cd861ac439b4c127e175708b, type: 3}
    - {fileID: 21300000, guid: 2123c6e41d505764c808be5778b6bd0c, type: 3}
    - {fileID: 21300000, guid: 2671b1d5240efa84292f9502194ebcd1, type: 3}
    - {fileID: 21300000, guid: 138d5a69c5d90db44a428d569ad66c49, type: 3}
    - {fileID: 21300000, guid: 1834d1476254e0a4f8ae943fc2abbc4a, type: 3}
    - {fileID: 21300000, guid: d0acccefb1a7cbd45a33b36c9aa995ee, type: 3}
    - {fileID: 21300000, guid: a4997b36d8a3acf469c59b6f2dc82bd2, type: 3}
    - {fileID: 21300000, guid: f23bbd170c782e74281e18ead7b2cd38, type: 3}
    - {fileID: 21300000, guid: 26c7aa88282871a4a951ae64738bf865, type: 3}
    - {fileID: 21300000, guid: 34e9a27553c9bb74db9915dad9878874, type: 3}
    - {fileID: 21300000, guid: c06ffb0a9a94b494c91d5592794c0b10, type: 3}
    - {fileID: 21300000, guid: fd5d60156ab46a4449e23423757954ae, type: 3}
    - {fileID: 21300000, guid: c32aa9b2f425509408d7379b831e164f, type: 3}
    - {fileID: 21300000, guid: 5ce9f87becf6c884099716867e93edb3, type: 3}
  m_AnimationClipSettings:
    serializedVersion: 2
    m_AdditiveReferencePoseClip: {fileID: 0}
    m_AdditiveReferencePoseTime: 0
    m_StartTime: 0
    m_StopTime: 6.9166665
    m_OrientationOffsetY: 0
    m_Level: 0
    m_CycleOffset: 0
    m_HasAdditiveReferencePose: 0
    m_LoopTime: 0
    m_LoopBlend: 0
    m_LoopBlendOrientation: 0
    m_LoopBlendPositionY: 0
    m_LoopBlendPositionXZ: 0
    m_KeepOriginalOrientation: 0
    m_KeepOriginalPositionY: 1
    m_KeepOriginalPositionXZ: 0
    m_HeightFromFeet: 0
    m_Mirror: 0
  m_EditorCurves: []
  m_EulerEditorCurves: []
  m_HasGenericRootTransform: 0
  m_HasMotionFloatCurves: 0
  m_Events: []
