%YAML 1.1
%TAG !u! tag:unity3d.com,2011:
--- !u!74 &7400000
AnimationClip:
  m_ObjectHideFlags: 0
  m_CorrespondingSourceObject: {fileID: 0}
  m_PrefabInstance: {fileID: 0}
  m_PrefabAsset: {fileID: 0}
  m_Name: BoyFreezeNoWeapon
  serializedVersion: 6
  m_Legacy: 0
  m_Compressed: 0
  m_UseHighQualityCurve: 1
  m_RotationCurves: []
  m_CompressedRotationCurves: []
  m_EulerCurves: []
  m_PositionCurves: []
  m_ScaleCurves: []
  m_FloatCurves: []
  m_PPtrCurves:
  - curve:
    - time: 0
      value: {fileID: 21300000, guid: b5af7919a16d1f04fb0f5b8f29044b85, type: 3}
    - time: 0.083333336
      value: {fileID: 21300000, guid: 221a9d3d5e802854ba62798d447fc341, type: 3}
    - time: 0.16666667
      value: {fileID: 21300000, guid: 600a7801d6c663f43a667e5f0dc181d1, type: 3}
    - time: 0.25
      value: {fileID: 21300000, guid: 8f1c606a755e123458210ecaeb548398, type: 3}
    - time: 0.33333334
      value: {fileID: 21300000, guid: 6d656ce842e381e4aa6ae3d069db4c85, type: 3}
    - time: 0.41666666
      value: {fileID: 21300000, guid: 1d6b288d2acf00f48b1a2275b75065c8, type: 3}
    - time: 0.5
      value: {fileID: 21300000, guid: 12c6d0e16fa8ca547b70575d2d020254, type: 3}
    - time: 0.5833333
      value: {fileID: 21300000, guid: 28b409b5404aa5742a42873fc9b62dd2, type: 3}
    - time: 0.6666667
      value: {fileID: 21300000, guid: ec8a1058a4c2a7546b3628e0e13a03ec, type: 3}
    - time: 0.75
      value: {fileID: 21300000, guid: 1f39dc6d0eee5e6459a38fdf14ba7b67, type: 3}
    - time: 0.8333333
      value: {fileID: 21300000, guid: e658224b24ad0c846b093e7e86f35cbd, type: 3}
    - time: 0.9166667
      value: {fileID: 21300000, guid: a60d5560552dbaf4a838207695f41f65, type: 3}
    - time: 1
      value: {fileID: 21300000, guid: cdd8b97f20c4eb843b4ecff063e8b120, type: 3}
    - time: 1.0833334
      value: {fileID: 21300000, guid: 39403896d6401d84cbc6cd8f3f7a4301, type: 3}
    - time: 1.1666666
      value: {fileID: 21300000, guid: 704ce65d2f484a046aa7854099c6d513, type: 3}
    - time: 1.25
      value: {fileID: 21300000, guid: 81603442347a5b948888296ddea77907, type: 3}
    - time: 1.3333334
      value: {fileID: 21300000, guid: 8250197f2ddfe7044921dcae33f5d351, type: 3}
    - time: 1.4166666
      value: {fileID: 21300000, guid: f018570276ad19a47abd6a9f513c9b34, type: 3}
    - time: 1.5
      value: {fileID: 21300000, guid: eec6695be7935f548b75e5641ccb914a, type: 3}
    - time: 1.5833334
      value: {fileID: 21300000, guid: 0bea220c324694f49af331cb7d3d7a77, type: 3}
    attribute: m_Sprite
    path: 
    classID: 212
    script: {fileID: 0}
  m_SampleRate: 12
  m_WrapMode: 0
  m_Bounds:
    m_Center: {x: 0, y: 0, z: 0}
    m_Extent: {x: 0, y: 0, z: 0}
  m_ClipBindingConstant:
    genericBindings:
    - serializedVersion: 2
      path: 0
      attribute: 0
      script: {fileID: 0}
      typeID: 212
      customType: 23
      isPPtrCurve: 1
    pptrCurveMapping:
    - {fileID: 21300000, guid: b5af7919a16d1f04fb0f5b8f29044b85, type: 3}
    - {fileID: 21300000, guid: 221a9d3d5e802854ba62798d447fc341, type: 3}
    - {fileID: 21300000, guid: 600a7801d6c663f43a667e5f0dc181d1, type: 3}
    - {fileID: 21300000, guid: 8f1c606a755e123458210ecaeb548398, type: 3}
    - {fileID: 21300000, guid: 6d656ce842e381e4aa6ae3d069db4c85, type: 3}
    - {fileID: 21300000, guid: 1d6b288d2acf00f48b1a2275b75065c8, type: 3}
    - {fileID: 21300000, guid: 12c6d0e16fa8ca547b70575d2d020254, type: 3}
    - {fileID: 21300000, guid: 28b409b5404aa5742a42873fc9b62dd2, type: 3}
    - {fileID: 21300000, guid: ec8a1058a4c2a7546b3628e0e13a03ec, type: 3}
    - {fileID: 21300000, guid: 1f39dc6d0eee5e6459a38fdf14ba7b67, type: 3}
    - {fileID: 21300000, guid: e658224b24ad0c846b093e7e86f35cbd, type: 3}
    - {fileID: 21300000, guid: a60d5560552dbaf4a838207695f41f65, type: 3}
    - {fileID: 21300000, guid: cdd8b97f20c4eb843b4ecff063e8b120, type: 3}
    - {fileID: 21300000, guid: 39403896d6401d84cbc6cd8f3f7a4301, type: 3}
    - {fileID: 21300000, guid: 704ce65d2f484a046aa7854099c6d513, type: 3}
    - {fileID: 21300000, guid: 81603442347a5b948888296ddea77907, type: 3}
    - {fileID: 21300000, guid: 8250197f2ddfe7044921dcae33f5d351, type: 3}
    - {fileID: 21300000, guid: f018570276ad19a47abd6a9f513c9b34, type: 3}
    - {fileID: 21300000, guid: eec6695be7935f548b75e5641ccb914a, type: 3}
    - {fileID: 21300000, guid: 0bea220c324694f49af331cb7d3d7a77, type: 3}
  m_AnimationClipSettings:
    serializedVersion: 2
    m_AdditiveReferencePoseClip: {fileID: 0}
    m_AdditiveReferencePoseTime: 0
    m_StartTime: 0
    m_StopTime: 1.6666666
    m_OrientationOffsetY: 0
    m_Level: 0
    m_CycleOffset: 0
    m_HasAdditiveReferencePose: 0
    m_LoopTime: 0
    m_LoopBlend: 0
    m_LoopBlendOrientation: 0
    m_LoopBlendPositionY: 0
    m_LoopBlendPositionXZ: 0
    m_KeepOriginalOrientation: 0
    m_KeepOriginalPositionY: 1
    m_KeepOriginalPositionXZ: 0
    m_HeightFromFeet: 0
    m_Mirror: 0
  m_EditorCurves: []
  m_EulerEditorCurves: []
  m_HasGenericRootTransform: 0
  m_HasMotionFloatCurves: 0
  m_Events: []
