%YAML 1.1
%TAG !u! tag:unity3d.com,2011:
--- !u!74 &7400000
AnimationClip:
  m_ObjectHideFlags: 0
  m_CorrespondingSourceObject: {fileID: 0}
  m_PrefabInstance: {fileID: 0}
  m_PrefabAsset: {fileID: 0}
  m_Name: BoyIdleWithSword
  serializedVersion: 6
  m_Legacy: 0
  m_Compressed: 0
  m_UseHighQualityCurve: 1
  m_RotationCurves: []
  m_CompressedRotationCurves: []
  m_EulerCurves: []
  m_PositionCurves: []
  m_ScaleCurves: []
  m_FloatCurves: []
  m_PPtrCurves:
  - curve:
    - time: 0
      value: {fileID: 21300000, guid: 9103fcf975a91684e8705d3fce88119e, type: 3}
    - time: 0.083333336
      value: {fileID: 21300000, guid: f8ce504f3510a454092b643f19838b09, type: 3}
    - time: 0.16666667
      value: {fileID: 21300000, guid: e63899513f686f84a8672e3a89b8498a, type: 3}
    - time: 0.25
      value: {fileID: 21300000, guid: d3a5977fdd82cbd42b36f3d5bf201823, type: 3}
    - time: 0.33333334
      value: {fileID: 21300000, guid: e72718fe4db89cd4ea266cb2e31e9781, type: 3}
    - time: 0.41666666
      value: {fileID: 21300000, guid: 1d9a795743fc3ef4a8843c5d291c4f6c, type: 3}
    - time: 0.5
      value: {fileID: 21300000, guid: f1466a336a607cd47bd432a1508fe891, type: 3}
    - time: 0.5833333
      value: {fileID: 21300000, guid: 31f368bd1d6d5534c879be1cade32ea3, type: 3}
    - time: 0.6666667
      value: {fileID: 21300000, guid: cd28ae13bc265d24584e11cbabc32ae6, type: 3}
    - time: 0.75
      value: {fileID: 21300000, guid: d682d5ae9dbd4f84287c6d7bf4986c88, type: 3}
    - time: 0.8333333
      value: {fileID: 21300000, guid: 2b368cb1af5aa6b468a9d4534f8282b2, type: 3}
    - time: 0.9166667
      value: {fileID: 21300000, guid: 40f5af758883ba941b076ef99774a858, type: 3}
    - time: 1
      value: {fileID: 21300000, guid: dce1473ed9c65ec44a9cf9b0cc667d52, type: 3}
    - time: 1.0833334
      value: {fileID: 21300000, guid: 71ef78d8a8368c142a49982f33db98e2, type: 3}
    - time: 1.1666666
      value: {fileID: 21300000, guid: 5f2d10f8b9c13ee48b194f64d499be75, type: 3}
    - time: 1.25
      value: {fileID: 21300000, guid: dea0bd005d78b07488240685cd0c04f6, type: 3}
    - time: 1.3333334
      value: {fileID: 21300000, guid: 71a851e067e26084aabcd5489fbbb194, type: 3}
    - time: 1.4166666
      value: {fileID: 21300000, guid: 6ce8d176f8a4e6048a62a961bc747cda, type: 3}
    - time: 1.5
      value: {fileID: 21300000, guid: 2116b84e97cea294d9fe7fdc6fc45551, type: 3}
    - time: 1.5833334
      value: {fileID: 21300000, guid: 151ddc1046281fb4a9450cdfecbb9d16, type: 3}
    - time: 1.6666666
      value: {fileID: 21300000, guid: 788e2b13a9ecd924ab16b2c0747b1bea, type: 3}
    - time: 1.75
      value: {fileID: 21300000, guid: ab90b68a5b409504f8530d103eeac4b1, type: 3}
    - time: 1.8333334
      value: {fileID: 21300000, guid: eb020ad5c6825d648a180cd0a959f2ad, type: 3}
    - time: 1.9166666
      value: {fileID: 21300000, guid: d368155a13eb0b1438f6f3fc9142d3ef, type: 3}
    - time: 2
      value: {fileID: 21300000, guid: 24577a2bec8a161419097e12ae72c0dd, type: 3}
    - time: 2.0833333
      value: {fileID: 21300000, guid: 2d52cda0a2ebea247a04ecadff038c12, type: 3}
    - time: 2.1666667
      value: {fileID: 21300000, guid: f9a22432cb593594d9f1583694a93ef5, type: 3}
    - time: 2.25
      value: {fileID: 21300000, guid: 5c4e8f781c4505840a57b24546ef3a9b, type: 3}
    - time: 2.3333333
      value: {fileID: 21300000, guid: 3f600a9e7e8b95742a98c3785f3cf608, type: 3}
    - time: 2.4166667
      value: {fileID: 21300000, guid: 7f4eef48233d58a48953204efdfda007, type: 3}
    - time: 2.5
      value: {fileID: 21300000, guid: 714a6309fcccdf24e8d9d10604f0bcec, type: 3}
    - time: 2.5833333
      value: {fileID: 21300000, guid: 0d6f76dc5b8a78648960c2a5155ec3d6, type: 3}
    - time: 2.6666667
      value: {fileID: 21300000, guid: 511e5be272ddca24eb16dd3bf571bf34, type: 3}
    - time: 2.75
      value: {fileID: 21300000, guid: dfb34d26a79079447ae005d46f392698, type: 3}
    - time: 2.8333333
      value: {fileID: 21300000, guid: 7fff9e9dd0753c2419c5b72532db3d74, type: 3}
    - time: 2.9166667
      value: {fileID: 21300000, guid: 0fe95dc9b8ad2f04aa083d3f8ec357f0, type: 3}
    - time: 3
      value: {fileID: 21300000, guid: 0a281a71adce0374698bb71104c723d1, type: 3}
    - time: 3.0833333
      value: {fileID: 21300000, guid: 8f0847ff6c7e9fb4aa086c7f13fdf527, type: 3}
    - time: 3.1666667
      value: {fileID: 21300000, guid: 24bfea895b2850448a5b91d23143a443, type: 3}
    - time: 3.25
      value: {fileID: 21300000, guid: 46a83335f2c40124eb5dafaabc375ac4, type: 3}
    - time: 3.3333333
      value: {fileID: 21300000, guid: 30f431f96bfe150489090dfa515d2114, type: 3}
    - time: 3.4166667
      value: {fileID: 21300000, guid: 9a683f6a67c063f40aa5d1362032b374, type: 3}
    - time: 3.5
      value: {fileID: 21300000, guid: 9c205edc5a247fa4393128947c6eb490, type: 3}
    - time: 3.5833333
      value: {fileID: 21300000, guid: 61a6b4a3675af2e44b6387a481f21136, type: 3}
    - time: 3.6666667
      value: {fileID: 21300000, guid: 54ca809da491a0c4cb923f12b7e7f881, type: 3}
    - time: 3.75
      value: {fileID: 21300000, guid: 5cd5edc90f290ff4594c8f2395b53e72, type: 3}
    - time: 3.8333333
      value: {fileID: 21300000, guid: 238b43794fb86c442b7dae58babed810, type: 3}
    - time: 3.9166667
      value: {fileID: 21300000, guid: 3fc8c59cdd124374faf058ec4ddb8109, type: 3}
    - time: 4
      value: {fileID: 21300000, guid: 5afe1ee4b82155e4baba557b2e6c85ce, type: 3}
    - time: 4.0833335
      value: {fileID: 21300000, guid: 6640d062ab38e7540bcf78300b4470af, type: 3}
    - time: 4.1666665
      value: {fileID: 21300000, guid: 59067ecef1a63984eb4feb3edf928a1a, type: 3}
    - time: 4.25
      value: {fileID: 21300000, guid: da460a8bc97db01489dcab85405cac14, type: 3}
    - time: 4.3333335
      value: {fileID: 21300000, guid: dee614b1ba22a9f499e338a8ba7f2761, type: 3}
    - time: 4.4166665
      value: {fileID: 21300000, guid: 6d5b25ffddfe69b43836faa8103391dd, type: 3}
    - time: 4.5
      value: {fileID: 21300000, guid: 01af283ef847a8642ba43fd7ea8c9794, type: 3}
    - time: 4.5833335
      value: {fileID: 21300000, guid: 4e1654ca48cbe9844ad8e2612acddc7b, type: 3}
    - time: 4.6666665
      value: {fileID: 21300000, guid: 56eda35f6f02bbb459a685d03b5ae91c, type: 3}
    - time: 4.75
      value: {fileID: 21300000, guid: c6316e0619d753e4f9b80cb5d44ac407, type: 3}
    - time: 4.8333335
      value: {fileID: 21300000, guid: 9498a8aa7624c744fb153a0f1f81309a, type: 3}
    - time: 4.9166665
      value: {fileID: 21300000, guid: dd1ced42b26bb4b42a611b991a3c625c, type: 3}
    - time: 5
      value: {fileID: 21300000, guid: f925f2830a77234429861938f239c5f9, type: 3}
    attribute: m_Sprite
    path: 
    classID: 212
    script: {fileID: 0}
  m_SampleRate: 12
  m_WrapMode: 0
  m_Bounds:
    m_Center: {x: 0, y: 0, z: 0}
    m_Extent: {x: 0, y: 0, z: 0}
  m_ClipBindingConstant:
    genericBindings:
    - serializedVersion: 2
      path: 0
      attribute: 0
      script: {fileID: 0}
      typeID: 212
      customType: 23
      isPPtrCurve: 1
    pptrCurveMapping:
    - {fileID: 21300000, guid: 9103fcf975a91684e8705d3fce88119e, type: 3}
    - {fileID: 21300000, guid: f8ce504f3510a454092b643f19838b09, type: 3}
    - {fileID: 21300000, guid: e63899513f686f84a8672e3a89b8498a, type: 3}
    - {fileID: 21300000, guid: d3a5977fdd82cbd42b36f3d5bf201823, type: 3}
    - {fileID: 21300000, guid: e72718fe4db89cd4ea266cb2e31e9781, type: 3}
    - {fileID: 21300000, guid: 1d9a795743fc3ef4a8843c5d291c4f6c, type: 3}
    - {fileID: 21300000, guid: f1466a336a607cd47bd432a1508fe891, type: 3}
    - {fileID: 21300000, guid: 31f368bd1d6d5534c879be1cade32ea3, type: 3}
    - {fileID: 21300000, guid: cd28ae13bc265d24584e11cbabc32ae6, type: 3}
    - {fileID: 21300000, guid: d682d5ae9dbd4f84287c6d7bf4986c88, type: 3}
    - {fileID: 21300000, guid: 2b368cb1af5aa6b468a9d4534f8282b2, type: 3}
    - {fileID: 21300000, guid: 40f5af758883ba941b076ef99774a858, type: 3}
    - {fileID: 21300000, guid: dce1473ed9c65ec44a9cf9b0cc667d52, type: 3}
    - {fileID: 21300000, guid: 71ef78d8a8368c142a49982f33db98e2, type: 3}
    - {fileID: 21300000, guid: 5f2d10f8b9c13ee48b194f64d499be75, type: 3}
    - {fileID: 21300000, guid: dea0bd005d78b07488240685cd0c04f6, type: 3}
    - {fileID: 21300000, guid: 71a851e067e26084aabcd5489fbbb194, type: 3}
    - {fileID: 21300000, guid: 6ce8d176f8a4e6048a62a961bc747cda, type: 3}
    - {fileID: 21300000, guid: 2116b84e97cea294d9fe7fdc6fc45551, type: 3}
    - {fileID: 21300000, guid: 151ddc1046281fb4a9450cdfecbb9d16, type: 3}
    - {fileID: 21300000, guid: 788e2b13a9ecd924ab16b2c0747b1bea, type: 3}
    - {fileID: 21300000, guid: ab90b68a5b409504f8530d103eeac4b1, type: 3}
    - {fileID: 21300000, guid: eb020ad5c6825d648a180cd0a959f2ad, type: 3}
    - {fileID: 21300000, guid: d368155a13eb0b1438f6f3fc9142d3ef, type: 3}
    - {fileID: 21300000, guid: 24577a2bec8a161419097e12ae72c0dd, type: 3}
    - {fileID: 21300000, guid: 2d52cda0a2ebea247a04ecadff038c12, type: 3}
    - {fileID: 21300000, guid: f9a22432cb593594d9f1583694a93ef5, type: 3}
    - {fileID: 21300000, guid: 5c4e8f781c4505840a57b24546ef3a9b, type: 3}
    - {fileID: 21300000, guid: 3f600a9e7e8b95742a98c3785f3cf608, type: 3}
    - {fileID: 21300000, guid: 7f4eef48233d58a48953204efdfda007, type: 3}
    - {fileID: 21300000, guid: 714a6309fcccdf24e8d9d10604f0bcec, type: 3}
    - {fileID: 21300000, guid: 0d6f76dc5b8a78648960c2a5155ec3d6, type: 3}
    - {fileID: 21300000, guid: 511e5be272ddca24eb16dd3bf571bf34, type: 3}
    - {fileID: 21300000, guid: dfb34d26a79079447ae005d46f392698, type: 3}
    - {fileID: 21300000, guid: 7fff9e9dd0753c2419c5b72532db3d74, type: 3}
    - {fileID: 21300000, guid: 0fe95dc9b8ad2f04aa083d3f8ec357f0, type: 3}
    - {fileID: 21300000, guid: 0a281a71adce0374698bb71104c723d1, type: 3}
    - {fileID: 21300000, guid: 8f0847ff6c7e9fb4aa086c7f13fdf527, type: 3}
    - {fileID: 21300000, guid: 24bfea895b2850448a5b91d23143a443, type: 3}
    - {fileID: 21300000, guid: 46a83335f2c40124eb5dafaabc375ac4, type: 3}
    - {fileID: 21300000, guid: 30f431f96bfe150489090dfa515d2114, type: 3}
    - {fileID: 21300000, guid: 9a683f6a67c063f40aa5d1362032b374, type: 3}
    - {fileID: 21300000, guid: 9c205edc5a247fa4393128947c6eb490, type: 3}
    - {fileID: 21300000, guid: 61a6b4a3675af2e44b6387a481f21136, type: 3}
    - {fileID: 21300000, guid: 54ca809da491a0c4cb923f12b7e7f881, type: 3}
    - {fileID: 21300000, guid: 5cd5edc90f290ff4594c8f2395b53e72, type: 3}
    - {fileID: 21300000, guid: 238b43794fb86c442b7dae58babed810, type: 3}
    - {fileID: 21300000, guid: 3fc8c59cdd124374faf058ec4ddb8109, type: 3}
    - {fileID: 21300000, guid: 5afe1ee4b82155e4baba557b2e6c85ce, type: 3}
    - {fileID: 21300000, guid: 6640d062ab38e7540bcf78300b4470af, type: 3}
    - {fileID: 21300000, guid: 59067ecef1a63984eb4feb3edf928a1a, type: 3}
    - {fileID: 21300000, guid: da460a8bc97db01489dcab85405cac14, type: 3}
    - {fileID: 21300000, guid: dee614b1ba22a9f499e338a8ba7f2761, type: 3}
    - {fileID: 21300000, guid: 6d5b25ffddfe69b43836faa8103391dd, type: 3}
    - {fileID: 21300000, guid: 01af283ef847a8642ba43fd7ea8c9794, type: 3}
    - {fileID: 21300000, guid: 4e1654ca48cbe9844ad8e2612acddc7b, type: 3}
    - {fileID: 21300000, guid: 56eda35f6f02bbb459a685d03b5ae91c, type: 3}
    - {fileID: 21300000, guid: c6316e0619d753e4f9b80cb5d44ac407, type: 3}
    - {fileID: 21300000, guid: 9498a8aa7624c744fb153a0f1f81309a, type: 3}
    - {fileID: 21300000, guid: dd1ced42b26bb4b42a611b991a3c625c, type: 3}
    - {fileID: 21300000, guid: f925f2830a77234429861938f239c5f9, type: 3}
  m_AnimationClipSettings:
    serializedVersion: 2
    m_AdditiveReferencePoseClip: {fileID: 0}
    m_AdditiveReferencePoseTime: 0
    m_StartTime: 0
    m_StopTime: 5.0833335
    m_OrientationOffsetY: 0
    m_Level: 0
    m_CycleOffset: 0
    m_HasAdditiveReferencePose: 0
    m_LoopTime: 1
    m_LoopBlend: 0
    m_LoopBlendOrientation: 0
    m_LoopBlendPositionY: 0
    m_LoopBlendPositionXZ: 0
    m_KeepOriginalOrientation: 0
    m_KeepOriginalPositionY: 1
    m_KeepOriginalPositionXZ: 0
    m_HeightFromFeet: 0
    m_Mirror: 0
  m_EditorCurves: []
  m_EulerEditorCurves: []
  m_HasGenericRootTransform: 0
  m_HasMotionFloatCurves: 0
  m_Events: []
